Bootcamp 2023 - klasyfikacja
…
# Uczenie modelu
glm <- wkflow %>% 
  fit(data = df2_train_std)

Predykcja

# Przewidywanie wyników na podstawie modelu regresji logistycznej
pred <- predict(glm, new_data = df2_test_std)
df_preds <- glm %>% 
  augment(new_data = df2_test_std)
df_preds

# A tibble: 580 × 10
   spam  crl.tot dollar  bang money  n000  make .pred_class  .pred_0 .pred_1
 * <fct>   <dbl>  <dbl> <dbl> <dbl> <dbl> <dbl> <fct>          <dbl>   <dbl>
 1 1      0.680   0     0.422  0     0        0 0           0.826      0.174
 2 1      0.381   0     1.32   0     0        0 0           0.652      0.348
 3 1      0.662   6.41  0.169  4.95  2.94     0 1           0.000325   1.00 
 4 1      0.121   0     2.49   0     0        0 1           0.344      0.656
 5 1      0.128   0     1.08   0     0        0 0           0.729      0.271
 6 1      0.103   0     2.69   0     0        0 1           0.296      0.704
 7 1      1.01    0     2.31   0     0        0 1           0.320      0.680
 8 1      0.0996  0     2.19   0     0        0 1           0.429      0.571
 9 1      0.242   0     1.31   0     0        0 0           0.664      0.336
10 1      1.21    0.465 2.50   0     0        0 1           0.192      0.808
# … with 570 more rows
…
wkflow <- workflow() %>% 
  add_model(model) %>%  
  add_recipe(rec)

dt <- wkflow %>% 
  fit(data = df2_train_std)

Predykcja

pred <- predict(dt, new_data = df2_test_std)
df_preds <- dt %>%  
  augment(new_data = df2_test_std)
df_preds

# A tibble: 580 × 10
   spam  crl.tot dollar  bang money  n000  make .pred_class .pred_0 .pred_1
 * <fct>   <dbl>  <dbl> <dbl> <dbl> <dbl> <dbl> <fct>         <dbl>   <dbl>
 1 1      0.680   0     0.422  0     0        0 1             0.150   0.850
 2 1      0.381   0     1.32   0     0        0 1             0.150   0.850
 3 1      0.662   6.41  0.169  4.95  2.94     0 1             0.371   0.629
 4 1      0.121   0     2.49   0     0        0 0             0.770   0.230
 5 1      0.128   0     1.08   0     0        0 0             0.770   0.230
 6 1      0.103   0     2.69   0     0        0 0             0.770   0.230
 7 1      1.01    0     2.31   0     0        0 1             0.150   0.850
 8 1      0.0996  0     2.19   0     0        0 0             0.770   0.230
 9 1      0.242   0     1.31   0     0        0 0             0.770   0.230
10 1      1.21    0.465 2.50   0     0        0 1             0.150   0.850
# … with 570 more rows
…
wkflow <- workflow() %>% 
  add_model(model) %>%  
  add_recipe(rec)

dt <- wkflow %>% 
  fit(data = df2_train_std)

Predykcja

pred <- predict(dt, new_data = df2_test_std)
df_preds <- dt %>%  
  augment(new_data = df2_test_std)
df_preds

# A tibble: 580 × 10
   spam  crl.tot dollar  bang money  n000  make .pred_class .pred_0 .pred_1
 * <fct>   <dbl>  <dbl> <dbl> <dbl> <dbl> <dbl> <fct>         <dbl>   <dbl>
 1 1      0.680   0     0.422  0     0        0 0            0.580    0.420
 2 1      0.381   0     1.32   0     0        0 1            0.384    0.616
 3 1      0.662   6.41  0.169  4.95  2.94     0 1            0.194    0.806
 4 1      0.121   0     2.49   0     0        0 0            0.555    0.445
 5 1      0.128   0     1.08   0     0        0 0            0.835    0.165
 6 1      0.103   0     2.69   0     0        0 0            0.643    0.357
 7 1      1.01    0     2.31   0     0        0 1            0.0911   0.909
 8 1      0.0996  0     2.19   0     0        0 0            0.731    0.269
 9 1      0.242   0     1.31   0     0        0 0            0.586    0.414
10 1      1.21    0.465 2.50   0     0        0 1            0.0772   0.923
# … with 570 more rows
…
